{
  "until": 12345,
  "results": [
  {"trigger": "some-src/1.0-1", "suite": "testing", "package": "some-src",  "arch": "i386",  "version": "1.0-1", "status": "fail", "run_id": "1", "updated_at": "2018-10-08T21:08:00.000Z"}
  ]
}
