{
   "bin-contrib" : {
      "1.0-2" : {
         "amd64" : {
            "buildd" : false,
            "uid" : "uploader"
         }
      }
   },
   "builddbinnmu-common" : {
      "1.0-1" : {
         "all" : {
            "buildd" : true,
            "uid" : "buildd_amd64@buildd.debian.org"
         }
      }
   },
   "builddbinnmua" : {
      "1.0-1+b1" : {
         "amd64" : {
            "buildd" : true,
            "uid" : "buildd_amd64@buildd.debian.org"
         }
      },
      "1.0-2" : {
         "i386" : {
            "buildd" : true,
            "uid" : "buildd_amd64@buildd.debian.org"
         }
      }
   },
   "builddbinnmub" : {
      "1.0-1+b1" : {
         "amd64" : {
            "buildd" : true,
            "uid" : "buildd_amd64@buildd.debian.org"
         }
      },
      "1.0-2" : {
         "i386" : {
            "buildd" : true,
            "uid" : "buildd_amd64@buildd.debian.org"
         }
      }
   },
   "maintainerbinnmu-common" : {
      "1.0-1" : {
         "all" : {
            "buildd" : true,
            "uid" : "buildd_amd64@buildd.debian.org"
         }
      }
   },
   "maintainerbinnmua" : {
      "1.0-1+b1" : {
         "amd64" : {
            "buildd" : false,
            "uid" : "uploader"
         }
      },
      "1.0-2" : {
         "i386" : {
            "buildd" : true,
            "uid" : "buildd_amd64@buildd.debian.org"
         }
      }
   },
   "maintainerbinnmub" : {
      "1.0-1+b1" : {
         "amd64" : {
            "buildd" : false,
            "uid" : "uploader"
         }
      },
      "1.0-2" : {
         "i386" : {
            "buildd" : true,
            "uid" : "buildd_amd64@buildd.debian.org"
         }
      }
   },
   "maintainerupload-common" : {
      "1.0-2" : {
         "all" : {
            "buildd" : false,
            "uid" : "uploader"
         }
      }
   },
   "maintainerupload2" : {
      "1.0-2" : {
         "amd64" : {
            "buildd" : false,
            "uid" : "uploader"
         },
         "i386" : {
            "buildd" : true,
            "uid" : "buildd_amd64@buildd.debian.org"
         }
      }
   },
   "maintaineruploada" : {
      "1.0-2" : {
         "amd64" : {
            "buildd" : false,
            "uid" : "uploader"
         },
         "i386" : {
            "buildd" : true,
            "uid" : "buildd_amd64@buildd.debian.org"
         }
      }
   },
   "maintaineruploadall" : {
      "1.0-2" : {
         "amd64" : {
            "buildd" : true,
            "uid" : "buildd_amd64@buildd.debian.org"
         },
         "i386" : {
            "buildd" : true,
            "uid" : "buildd_amd64@buildd.debian.org"
         }
      }
   },
   "maintaineruploadall-common" : {
      "1.0-2" : {
         "all" : {
            "buildd" : false,
            "uid" : "uploader"
         }
      }
   },
   "maintaineruploadarch" : {
      "1.0-2" : {
         "amd64" : {
            "buildd" : false,
            "uid" : "uploader"
         },
         "i386" : {
            "buildd" : true,
            "uid" : "buildd_amd64@buildd.debian.org"
         }
      }
   },
   "maintaineruploadarch-common" : {
      "1.0-2" : {
         "all" : {
            "buildd" : true,
            "uid" : "buildd_amd64@buildd.debian.org"
         }
      }
   },
   "maintaineruploadb" : {
      "1.0-2" : {
         "amd64" : {
            "buildd" : false,
            "uid" : "uploader"
         },
         "i386" : {
            "buildd" : true,
            "uid" : "buildd_amd64@buildd.debian.org"
         }
      }
   },
   "mixedbinnmu-common" : {
      "1.0-1" : {
         "all" : {
            "buildd" : false,
            "uid" : "uploader"
         }
      }
   },
   "mixedbinnmua" : {
      "1.0-1+b1" : {
         "amd64" : {
            "buildd" : true,
            "uid" : "buildd_amd64@buildd.debian.org"
         }
      },
      "1.0-2" : {
         "i386" : {
            "buildd" : true,
            "uid" : "buildd_amd64@buildd.debian.org"
         }
      }
   },
   "mixedbinnmub" : {
      "1.0-1+b1" : {
         "amd64" : {
            "buildd" : true,
            "uid" : "buildd_amd64@buildd.debian.org"
         }
      },
      "1.0-2" : {
         "i386" : {
            "buildd" : true,
            "uid" : "buildd_amd64@buildd.debian.org"
         }
      }
   },
   "sourceupload-common" : {
      "1.0-2" : {
         "all" : {
            "buildd" : true,
            "uid" : "buildd_amd64@buildd.debian.org"
         }
      }
   },
   "sourceuploada" : {
      "1.0-2" : {
         "amd64" : {
            "buildd" : true,
            "uid" : "buildd_amd64@buildd.debian.org"
         },
         "i386" : {
            "buildd" : true,
            "uid" : "buildd_amd64@buildd.debian.org"
         }
      }
   },
   "sourceuploadb" : {
      "1.0-2" : {
         "amd64" : {
            "buildd" : true,
            "uid" : "buildd_amd64@buildd.debian.org"
         },
         "i386" : {
            "buildd" : true,
            "uid" : "buildd_amd64@buildd.debian.org"
         }
      }
   },
   "whitelisted1" : {
      "1.0-2" : {
         "amd64" : {
            "buildd" : false,
            "uid" : "uploader"
         },
         "i386" : {
            "buildd" : true,
            "uid" : "buildd_amd64@buildd.debian.org"
         }
      }
   },
   "whitelisted1-common" : {
      "1.0-2" : {
         "all" : {
            "buildd" : false,
            "uid" : "uploader"
         }
      }
   },
   "whitelisted1-doc" : {
      "1.0-2" : {
         "all" : {
            "buildd" : false,
            "uid" : "uploader"
         }
      }
   },
   "whitelisted2" : {
      "1.0-2" : {
         "amd64" : {
            "buildd" : true,
            "uid" : "buildd_amd64@buildd.debian.org"
         },
         "i386" : {
            "buildd" : true,
            "uid" : "buildd_amd64@buildd.debian.org"
         }
      }
   },
   "whitelisted2-common" : {
      "1.0-2" : {
         "all" : {
            "buildd" : false,
            "uid" : "uploader"
         }
      }
   }
}
